…
  return(data)
}

all_data = map_df(file_info_df$file_name, process_file)|>
  pivot_longer(
    week_1:week_8,
    names_to="week",
    values_to="outcome",
    names_prefix="week_"
  )

all_data
```

    ## # A tibble: 160 × 4
    ##    subject_id arm   week  outcome
    ##    <chr>      <chr> <chr>   <dbl>
    ##  1 01         con   1        0.2 
    ##  2 01         con   2       -1.31
    ##  3 01         con   3        0.66
    ##  4 01         con   4        1.96
    ##  5 01         con   5        0.23
    ##  6 01         con   6        1.09
    ##  7 01         con   7        0.05
    ##  8 01         con   8        1.94
    ##  9 02         con   1        1.13
    ## 10 02         con   2       -0.88
    ## # ℹ 150 more rows
…
